*** Darwin 9x11 ***
Turn = 0.
  01234567890
0 .rr....fr..
1 rrr..t.r...
2 ..r.r.h...r
3 rr..rr.r.rr
4 ..rr...r.rr
5 ..r.rrr.rr.
6 ....rrr..rr
7 .r.rh..rr.t
8 .r...r....f

Turn = 25.
  01234567890
0 rrrrr.r.rrr
1 rrr..r.....
2 rrrr.....r.
3 .rrrr..r.r.
4 r.r....r..r
5 rr...r...rr
6 ..rr....rr.
7 r..........
8 rr.rr.rrr..

Turn = 50.
  01234567890
0 rrrrrrrr..r
1 r.rrr...r..
2 rr.rrr..r..
3 ...rr...r..
4 ...rr..r.r.
5 rrr..r...r.
6 rr....rrr..
7 rr.r......r
8 r..rr.....r

Turn = 75.
  01234567890
0 rr..r.....r
1 rr.....rrrr
2 rrr....r...
3 .r.....r..r
4 rr.r.....rr
5 .r.r.rrrrr.
6 rr.r..rrr..
7 rrrr.r.....
8 r.r.rr.r...

*** Darwin 8x12 ***
Turn = 0.
  012345678901
0 .r.rrrr..rrr
1 rrrrrr..rrrr
2 r.r.rr.r.r..
3 .r.r.r.rrt.r
4 r.r...r.r..r
5 r.r....rrr.r
6 rr.r.rrr.r.r
7 rrrrfrr..rr.

Turn = 49.
  012345678901
0 rrrrrr...rr.
1 rr.r....rr..
2 rrrrr.r...rr
3 rrr.r.r...r.
4 rrr..r.rrrrr
5 rrr.r.r..rr.
6 rr.rrrrr..rr
7 r.rrr.rrr...

*** Darwin 9x4 ***
Turn = 0.
  0123
0 .h..
1 ....
2 ....
3 ....
4 ....
5 ....
6 ..f.
7 ....
8 ....

Turn = 34.
  0123
0 ...h
1 ....
2 ....
3 ....
4 ....
5 ....
6 ..f.
7 ....
8 ....

Turn = 68.
  0123
0 ...h
1 ....
2 ....
3 ....
4 ....
5 ....
6 ..f.
7 ....
8 ....

Turn = 102.
  0123
0 ...h
1 ....
2 ....
3 ....
4 ....
5 ....
6 ..f.
7 ....
8 ....

*** Darwin 9x14 ***
Turn = 0.
  01234567890123
0 .r.......f....
1 ........r.....
2 f....r.......r
3 .r............
4 f............f
5 ....f........t
6 r..........r.f
7 ..r........t..
8 ftf...rr......

Turn = 2.
  01234567890123
0 r........f....
1 ..............
2 f......r......
3 ...r....r....r
4 f............r
5 ....f........t
6 ..r......r...t
7 .t.........t..
8 ftf...rr......

Turn = 4.
  01234567890123
0 r........f....
1 ..............
2 f........r....
3 .....r.......r
4 f............r
5 ....f...r.....
6 ....r..r.....r
7 .t.........t..
8 ttf.rr.......r

Turn = 6.
  01234567890123
0 .r.......f....
1 ..............
2 f..........r..
3 .......r.....r
4 f.............
5 ....f........r
6 .....rr.......
7 .t......r..t.r
8 ttrrr.......r.

Turn = 8.
  01234567890123
0 ...r.....f....
1 .............r
2 f...........r.
3 .........r....
4 f....r........
5 ....f.........
6 .............r
7 .t.........t..
8 ttrr.rr.r.r..r

Turn = 10.
  01234567890123
0 .....r...f...r
1 ..............
2 f....r........
3 ...........r..
4 f...........r.
5 ....f.........
6 ...........r..
7 .t...r....rt..
8 tttt...r.r..r.

Turn = 12.
  01234567890123
0 .....r.r.f...r
1 ..............
2 f.............
3 .............r
4 f.............
5 ....fr........
6 .........r..r.
7 .t.......r.t..
8 tttt....r.rr..

Turn = 14.
  01234567890123
0 ....r...rr....
1 .............r
2 f............r
3 .....r........
4 f.............
5 ....f.........
6 .......r......
7 .t.....r...r..
8 tttt...r..rrr.

Turn = 16.
  01234567890123
0 ..r........r..
1 .....r..r....r
2 f...........r.
3 ..............
4 f.............
5 ....f.........
6 .....r........
7 .t...r...r....
8 tttt.r...r.rr.

Turn = 18.
  01234567890123
0 r....r......rr
1 ..............
2 f.........r...
3 ........r.....
4 f.............
5 ....f.........
6 ...r..........
7 .t.r...r......
8 tttrr..r.r...r

Turn = 20.
  01234567890123
0 .......r....rr
1 r.............
2 f.......r.....
3 ..............
4 f.............
5 ....f...r.....
6 .r............
7 .tt..r........
8 tttrrr.r.....r

Turn = 22.
  01234567890123
0 .........r..rr
1 r.............
2 r.....r.......
3 ..............
4 f.............
5 ....f.........
6 r.............
7 .ttrr...r.....
8 tttr.rr....r..

Turn = 24.
  01234567890123
0 ...........rr.
1 ..r...........
2 ..r.r.......r.
3 ..............
4 f.............
5 ....r.........
6 ....r.........
7 rtrt.r........
8 tttt...rrr....

Turn = 26.
  01234567890123
0 ...........r..
1 ....r.........
2 ...rr.......r.
3 ..............
4 f...r.......r.
5 .....rr.......
6 ..............
7 rttt...r......
8 rttt....rr....

Turn = 28.
  01234567890123
0 ...r.........r
1 ......r.......
2 ..r.r.........
3 .....r........
4 f...........r.
5 .r.....rr.....
6 ............r.
7 .ttt..........
8 tttt..r....r..

Turn = 30.
  01234567890123
0 ..r.r.........
1 .....r..r....r
2 r.............
3 .r.....r......
4 f.............
5 ..........r...
6 ............r.
7 .ttt........r.
8 ttttr........r

Turn = 32.
  01234567890123
0 r...rr........
1 .r.....r..r...
2 ..............
3 r............r
4 f.............
5 ............r.
6 ...........r..
7 .ttt......r..r
8 tttrr.........

Turn = 34.
  01234567890123
0 .r..rr.r......
1 r...........r.
2 ..............
3 r.............
4 r............r
5 .............r
6 .........r...r
7 .ttt....r.....
8 ttttt.........

Turn = 36.
  01234567890123
0 ...r.r.r.r....
1 .............r
2 r.............
3 r.............
4 ..r........r..
5 ............rr
6 .......r......
7 .ttt..r.......
8 ttttt.........

Turn = 38.
  01234567890123
0 .....r.r.r.r..
1 r.............
2 ..............
3 .............r
4 r...r....r...r
5 ..........r...
6 .....r........
7 .tttr.........
8 ttttt.........

Turn = 40.
  01234567890123
0 r......r.r.r.r
1 ..............
2 ..............
3 ............rr
4 ......rr......
5 ........r.....
6 r..r..........
7 .tttt.........
8 ttttt.........

Turn = 42.
  01234567890123
0 r........r.rrr
1 .............r
2 ..............
3 .......r..r...
4 ..............
5 ......rr......
6 .t............
7 rtttt.........
8 rrrrt.........

Turn = 44.
  01234567890123
0 ..r.......rrrr
1 .......r.....r
2 ..............
3 ........r.....
4 ..............
5 ..............
6 .t............
7 rrtrt.rr......
8 rrrtt.........

Turn = 46.
  01234567890123
0 ....r..r.....r
1 ...........rr.
2 ..........r.r.
3 ......r.......
4 ..............
5 ..............
6 rt............
7 .rrrt.........
8 rrrrr.rr......

Turn = 48.
  01234567890123
0 ......r..r....
1 ..........r..r
2 ..............
3 ....r......r..
4 r.........r.r.
5 ..............
6 .r............
7 rrrtr.r.......
8 .rrrr....r....

Turn = 50.
  01234567890123
0 ........r..r..
1 ........r.....
2 r.............
3 ..r..........r
4 ..............
5 ..r...r....r..
6 r.r.......r.r.
7 rr.tr.........
8 r..rr......r..

Turn = 52.
  01234567890123
0 r.........r..r
1 ......r.......
2 ..............
3 r.r...r.......
4 ..r...........
5 .............r
6 .r............
7 rrrrr......rr.
8 ...rr.....r..r

Turn = 54.
  01234567890123
0 r...........rr
1 ..r.r.r.......
2 ..r...........
3 ..............
4 r.............
5 r.............
6 ...r.........r
7 ..r...r......r
8 .rrrr....r.r.r

Turn = 56.
  01234567890123
0 .rr...r.....r.
1 ..rr.........r
2 ..............
3 ..............
4 r.............
5 r............r
6 ...r.r.....r..
7 r.......r.....
8 .r.r..rr....rr

Turn = 58.
  01234567890123
0 .r..r...r.r...
1 r.r...........
2 ..............
3 .............r
4 .r.r.........r
5 ..............
6 r......r.r....
7 r......r..r..r
8 ..r..rr....r..

*** Darwin 4x10 ***
Turn = 0.
  0123456789
0 ..........
1 ........fr
2 .......r..
3 ..f.f.....

*** Darwin 13x15 ***
Turn = 0.
  012345678901234
0 rfrf.ttt..fft.f
1 .ft.h.rh.tt...t
2 f.t...ttf.t..t.
3 .t.....ft.t...t
4 f...ffffr.t.fr.
5 .r..f.t...tf..t
6 rt.t.tt..f.t.tt
7 ..ff.tr.tfttfft
8 tftf.t.tttt..f.
9 ..ft..r.ttr.tt.
0 .t.r.trtffrt...
1 htt.f.ftf..rrf.
2 ft...fttff.ftht

*** Darwin 17x3 ***
Turn = 0.
  012
0 .h.
1 ...
2 h.t
3 hh.
4 hh.
5 h..
6 ...
7 ...
8 ..f
9 rf.
0 .h.
1 .tt
2 ...
3 .h.
4 h.h
5 f..
6 ...

Turn = 6.
  012
0 .h.
1 .h.
2 h.t
3 r..
4 r..
5 r.h
6 ...
7 ...
8 .tf
9 .t.
0 .t.
1 .tt
2 ...
3 h..
4 hh.
5 f..
6 ...

Turn = 12.
  012
0 rh.
1 rh.
2 .rt
3 ...
4 ..r
5 ...
6 ...
7 ..t
8 .tt
9 .t.
0 .t.
1 .tt
2 ...
3 h..
4 hh.
5 f..
6 ...

Turn = 18.
  012
0 ..r
1 rt.
2 .tt
3 ...
4 ...
5 ...
6 r..
7 rrr
8 ...
9 .tt
0 .t.
1 .tt
2 ...
3 h..
4 hh.
5 f..
6 ...

Turn = 24.
  012
0 ...
1 .tt
2 rrt
3 ...
4 ...
5 r..
6 rr.
7 ...
8 r..
9 .tt
0 .t.
1 .tt
2 ...
3 h..
4 hh.
5 f..
6 ...

Turn = 30.
  012
0 .rr
1 r..
2 ..t
3 r.r
4 r..
5 ...
6 ...
7 ...
8 ..r
9 .t.
0 .tt
1 .tt
2 r..
3 r..
4 hh.
5 f..
6 ...

*** Darwin 7x15 ***
Turn = 0.
  012345678901234
0 .f..h..t.h..th.
1 h..ftffhhf.....
2 fhff.f.....hhf.
3 ff..h..fffff..f
4 ..f.fthfh.th...
5 ffh.f.f..f.f...
6 f..t...hf.h.thf

*** Darwin 20x17 ***
Turn = 0.
  01234567890123456
0 ..r.r............
1 .r.....r..r..r.r.
2 ................r
3 ....r.r..........
4 .......r.r...rr..
5 .......r...rr....
6 h..rr..r.........
7 ...........h.....
8 ......r..r.......
9 .....r.r....r....
0 ................r
1 .r.r....r........
2 ...r...rr....f...
3 .................
4 r....r.....r...tr
5 .....r......r....
6 ..r....rr........
7 .r...........r...
8 ........h.r.....h
9 .h....rrrr.r..r..

Turn = 37.
  01234567890123456
0 rr....r..r..r....
1 .......r.........
2 ........rr......r
3 ........r........
4 .............r.r.
5 .r............r..
6 r..r..rr.....rr.r
7 .r..r....r.......
8 .................
9 .................
0 ......r..r..r....
1 ..........r.r....
2 ............rr..r
3 .rrr........r....
4 .r.......r..r..r.
5 r...r.r....rr....
6 r....r.r........r
7 .....r...........
8 .....r.....r.....
9 r..rr......r..r..

Turn = 74.
  01234567890123456
0 .r.r..rr.........
1 ...r.............
2 .r.............r.
3 .......r........r
4 r...............r
5 rr.........r.r..r
6 r.r..............
7 ............r....
8 r.........r.r..r.
9 ..r.r...r........
0 ...........r.....
1 .r..r............
2 rr...........r...
3 rr............r..
4 r.rr...r.......r.
5 ................r
6 .rr..r..r......rr
7 ................r
8 r..........rrr..r
9 .r.r....r....r...

Turn = 111.
  01234567890123456
0 r.....r......rrrr
1 rr......rr..r....
2 rr...........r...
3 rrrr...........r.
4 r.rr............r
5 .............r...
6 rr..........r....
7 .rr.........r....
8 ...r.........r...
9 .....r...........
0 ....r............
1 ...............r.
2 .................
3 ......r..........
4 .....rr....r.....
5 r.........rr....r
6 r..r............r
7 ................r
8 .rr............r.
9 r.....rr.rrr....r

Turn = 148.
  01234567890123456
0 ..rrr..r...r...r.
1 r..r.....r....r..
2 r..............rr
3 r..r...........rr
4 ..r.r.r......r..r
5 .r.....r.......r.
6 .........r..r...r
7 ................r
8 ...r..r..........
9 .................
0 .r...............
1 r...........r....
2 r.......rr.....r.
3 .......r........r
4 .................
5 .................
6 .rr..........r...
7 r........r..rr...
8 ...r...rr........
9 .r..rr.rrr....r..

Turn = 185.
  01234567890123456
0 rrr.rrrr......r..
1 r..rr.r..........
2 ...............r.
3 ....r.........r..
4 .........r..r....
5 .........r.r....r
6 r.......rr......r
7 ...r..........r..
8 r....r......r...r
9 ...r....r......r.
0 r............rr..
1 r............r...
2 ....r............
3 ..r..............
4 .......r.........
5 .......r........r
6 ....r...........r
7 r....rr..........
8 ...........r....r
9 rrr.r..r....r...r

*** Darwin 1x5 ***
Turn = 0.
  01234
0 ...ff

Turn = 33.
  01234
0 ...ff

Turn = 66.
  01234
0 ...ff

Turn = 99.
  01234
0 ...ff

Turn = 132.
  01234
0 ...ff

Turn = 165.
  01234
0 ...ff

*** Darwin 7x1 ***
Turn = 0.
  0
0 f
1 .
2 r
3 .
4 .
5 .
6 .

Turn = 22.
  0
0 r
1 .
2 r
3 .
4 .
5 .
6 .

Turn = 44.
  0
0 r
1 .
2 r
3 .
4 .
5 .
6 .

Turn = 66.
  0
0 r
1 .
2 .
3 .
4 r
5 .
6 .

Turn = 88.
  0
0 .
1 .
2 .
3 .
4 .
5 r
6 r

*** Darwin 4x8 ***
Turn = 0.
  01234567
0 .rr..tt.
1 r.rt.rrr
2 r.tt.rf.
3 .trr....

Turn = 40.
  01234567
0 rrrr.r.r
1 rrr.r...
2 r.r.r.r.
3 ..rrrr..

*** Darwin 13x5 ***
Turn = 0.
  01234
0 th...
1 htrtt
2 .....
3 t.h..
4 rr..h
5 ...t.
6 hrrh.
7 f....
8 ...t.
9 ..t..
0 t..r.
1 .h...
2 ..rt.

Turn = 28.
  01234
0 tt..t
1 tt.tt
2 tt.tt
3 .....
4 ....t
5 ....t
6 ..ttt
7 .tt.r
8 .trt.
9 ..rt.
0 .....
1 .....
2 r....

Turn = 56.
  01234
0 tt..t
1 tt.tt
2 tt.tt
3 t....
4 ....t
5 ....t
6 ..ttt
7 .ttt.
8 .ttt.
9 ..tt.
0 .....
1 .....
2 .....

Turn = 84.
  01234
0 tt..t
1 tt.tt
2 tt.tt
3 t....
4 ....t
5 ....t
6 ..ttt
7 .ttt.
8 .ttt.
9 ..tt.
0 .....
1 .....
2 .....

Turn = 112.
  01234
0 tt..t
1 tt.tt
2 tt.tt
3 t....
4 ....t
5 ....t
6 ..ttt
7 .ttt.
8 .ttt.
9 ..tt.
0 .....
1 .....
2 .....

Turn = 140.
  01234
0 tt..t
1 tt.tt
2 tt.tt
3 t....
4 ....t
5 ....t
6 ..ttt
7 .ttt.
8 .ttt.
9 ..tt.
0 .....
1 .....
2 .....

Turn = 168.
  01234
0 tt..t
1 tt.tt
2 tt.tt
3 t....
4 ....t
5 ....t
6 ..ttt
7 .ttt.
8 .ttt.
9 ..tt.
0 .....
1 .....
2 .....

*** Darwin 20x1 ***
Turn = 0.
  0
0 f
1 r
2 r
3 .
4 r
5 .
6 r
7 r
8 t
9 r
0 .
1 r
2 r
3 r
4 .
5 r
6 r
7 .
8 r
9 t

Turn = 23.
  0
0 r
1 .
2 .
3 r
4 r
5 r
6 r
7 r
8 t
9 t
0 t
1 t
2 t
3 r
4 .
5 .
6 .
7 r
8 r
9 r

Turn = 46.
  0
0 r
1 r
2 .
3 .
4 r
5 r
6 r
7 t
8 t
9 t
0 t
1 t
2 t
3 t
4 r
5 r
6 .
7 r
8 .
9 .

Turn = 69.
  0
0 .
1 .
2 r
3 r
4 r
5 r
6 r
7 r
8 r
9 r
0 t
1 t
2 t
3 t
4 t
5 t
6 .
7 .
8 r
9 .

Turn = 92.
  0
0 r
1 r
2 r
3 .
4 .
5 r
6 r
7 r
8 r
9 t
0 t
1 t
2 t
3 t
4 t
5 t
6 t
7 .
8 .
9 .

Turn = 115.
  0
0 r
1 r
2 r
3 r
4 r
5 .
6 .
7 r
8 t
9 t
0 t
1 t
2 t
3 t
4 t
5 t
6 t
7 .
8 .
9 .

Turn = 138.
  0
0 r
1 .
2 .
3 r
4 r
5 r
6 t
7 t
8 t
9 t
0 t
1 t
2 t
3 t
4 t
5 t
6 t
7 .
8 .
9 .

*** Darwin 8x20 ***
Turn = 0.
  01234567890123456789
0 r.rrrffrrfrfff.rf.f.
1 .f.fftrrr.f.rrrfffrr
2 ..rff.f...fr.fr.ff..
3 .hrf.rfrrr.h...r.rfr
4 hf..rffff.f....fff.f
5 ftf.r.f.ff..rf.hf.fr
6 r.frrfrr.rtffrrfrf.f
7 ..f.r.t..fhf.r.fr.rr

Turn = 2.
  01234567890123456789
0 .rr.rrrrrr.frrr.rrr.
1 .rrrttrr.rf.rr.fffr.
2 hr.ffr.rr.f.rr.rrf.r
3 .rrrrrfr.h...r..rr.r
4 .f.r.rfffrfr...ffrrr
5 rtt.rrf.ff...r.hfrrr
6 r.rr.f.r.r.rfr.f.rrf
7 ..f...r.rfhrr.rf.r.r

Turn = 4.
  01234567890123456789
0 r.r.rr.rr..rrrr.rr.r
1 rrrrtrrrr.f.r.rrrf.r
2 r.rrrrrrr.frr..rrr.r
3 ...rrrrrhr..rr..rrr.
4 .rrrrrrffrf....fr.rr
5 ttt...r.fr.rr.rrrrrr
6 r.t..fr....r..rr.rrr
7 ..tr..rrrrrrr.rrr.rr

Turn = 6.
  01234567890123456789
0 rrrrrrrr...rr..rrr.r
1 r..rrrrr.rrr.r.rrrrr
2 rrr..rrrr.rr.rr.rr..
3 .rr.rrrrrr..r..rrrr.
4 .rrrrr.frrf.r.rr..rr
5 r.t...rrr.rrr.r.rrrr
6 r.t.rr......r.rrr.rr
7 r.tt..rrrrrr.rrrrrrr
